["cpu5", "apq8016"], 
["cpu11", "apq8064"], 
["cpu13", "apq8084"], 
["cpu14", "apq8096"], 
["cpu16", "aries"], 
["cpu20", "BCM2835"], 
["cpu24", "cardhu"], 
["cpu28", "dalmore"], 
["cpu29", "eagle"], 
["cpu63", "harmony"], 
["cpu77", "koelsch"], 
["cpu121", "msm8916"], 
["cpu135", "msm8960"], 
["cpu136", "msm8960dt"], 
["cpu137", "msm8960pro"], 
["cpu138", "msm8974"], 
["cpu139", "msm8974pro"], 
["cpu142", "msm8992"], 
["cpu143", "msm8994"], 
["cpu144", "msm8996"], 
["cpu145", "msm8996pro"], 
["cpu146", "msm8998"], 
["cpu162", "MT6580"], 
["cpu163", "MT6580M"], 
["cpu164", "MT6580WP"], 
["cpu167", "MT6589"], 
["cpu169", "MT6592"], 
["cpu170", "MT6592T"], 
["cpu202", "MT6755"], 
["cpu203", "MT6755BM"], 
["cpu204", "MT6755M"], 
["cpu205", "MT6755V/B"], 
["cpu206", "MT6755V/BM"], 
["cpu207", "MT6755V/C"], 
["cpu208", "MT6755V/CM"], 
["cpu209", "MT6755V/CT"], 
["cpu210", "MT6755V/W"], 
["cpu211", "MT6755V/WM"], 
["cpu212", "MT6755V/WS"], 
["cpu213", "MT6755V/WT"], 
["cpu246", "MT6795"], 
["cpu247", "MT6795M"], 
["cpu248", "MT6795MM"], 
["cpu249", "MT6795T"], 
["cpu250", "MT6797"], 
["cpu251", "MT6797D"], 
["cpu252", "MT6797M"], 
["cpu253", "MT6797T"], 
["cpu254", "MT6797X"], 
["cpu258", "MT8127"], 
["cpu259", "MT8135"], 
["cpu267", "MT8173"], 
["cpu296", "MT6592"], 
["cpu310", "ODROID-C2"], 
["cpu311", "OMAP4430"], 
["cpu339", "rk3188"], 
["cpu340", "rk3188+"], 
["cpu341", "rk3229"], 
["cpu342", "rk3288"], 
["cpu343", "rk3368"], 
["cpu344", "rk3399"], 
["cpu345", "rk3399-box"], 
["cpu376", "sdm845"], 
["cpu392", "stingray"], 
["cpu422", "ventana"],
